{
	"name": "MapRoulette",
	"catchphrase": "Fix interactively random issues",
	"logo": "http://maproulette.org/assets/images/logo.png",
	"picture": "https://wiki.openstreetmap.org/w/images/thumb/9/99/Maproulette_aerodromes.png/800px-Maproulette_aerodromes.png",
	"description": "MapRoulette is a gamified approach to fixing OSM bugs that breaks common OpenStreetMap data problems into micro tasks. Grab yourself a small task and start improving OpenStreetMap!",
	"start_url": "http://maproulette.org/",
	"doc_url": "https://wiki.openstreetmap.org/wiki/MapRoulette",
	"settings": {
		"duration": "minutes",
		"where": "inside",
		"difficulty": "intermediate"
	}
}
