{
	"name": "OSM Notes",
	"catchphrase": "Text note over map",
	"logo": "https://wiki.openstreetmap.org/w/images/thumb/7/79/Public-images-osm_logo.svg/256px-Public-images-osm_logo.svg.png",
	"picture": "https://wiki.openstreetmap.org/w/images/8/8f/Notes_sidebar_screenshot.png",
	"description": "Notes is a core feature of the OpenStreetMap.org website for placing shared notes on the map to assist in mapping/editing OpenStreetMap. It is not intended for general discussion or storing information not otherwise used in OpenStreetMap; for example, \"I was here on Saturday\" or \"There was a crime at this location\". Notes allow for two way communication, with the ability for a mapper to ask for more details if necessary. Although it is not necessary to be logged in to submit (or comment on) a note, it is beneficial to do so. Logged-in users will receive an email if comments are added to a note or the issue is resolved.",
	"start_url": "https://www.openstreetmap.org/",
	"doc_url": "https://wiki.openstreetmap.org/wiki/Notes",
	"settings": {
		"duration": "seconds",
		"where": "everywhere",
		"difficulty": "easy"
	}
}
